<?xml version="1.0" encoding="UTF-8" standalone="no"?>
<!-- Created with Inkscape (http://www.inkscape.org/) -->

<svg
   xmlns:dc="http://purl.org/dc/elements/1.1/"
   xmlns:cc="http://creativecommons.org/ns#"
   xmlns:rdf="http://www.w3.org/1999/02/22-rdf-syntax-ns#"
   xmlns:svg="http://www.w3.org/2000/svg"
   xmlns="http://www.w3.org/2000/svg"
   xmlns:xlink="http://www.w3.org/1999/xlink"
   xmlns:sodipodi="http://sodipodi.sourceforge.net/DTD/sodipodi-0.dtd"
   xmlns:inkscape="http://www.inkscape.org/namespaces/inkscape"
   width="32"
   height="32"
   viewBox="0 0 8.4666659 8.4666659"
   version="1.1"
   id="svg8"
   inkscape:version="0.92.5 (2060ec1f9f, 2020-04-08)"
   sodipodi:docname="ball.inkscape.svg"
   inkscape:export-filename="/home/marco/development/pyng-pong/assets/sprites/ball.png"
   inkscape:export-xdpi="96"
   inkscape:export-ydpi="96">
  <defs
     id="defs2">
    <linearGradient
       inkscape:collect="always"
       id="linearGradient4538">
      <stop
         style="stop-color:#00ffff;stop-opacity:1"
         offset="0"
         id="stop4534" />
      <stop
         style="stop-color:#800000;stop-opacity:1"
         offset="1"
         id="stop4536" />
    </linearGradient>
    <radialGradient
       inkscape:collect="always"
       xlink:href="#linearGradient4538"
       id="radialGradient4544"
       gradientUnits="userSpaceOnUse"
       gradientTransform="matrix(1.0639117,0,0,1.0639386,-0.27829371,-18.686415)"
       cx="4.2404866"
       cy="292.7359"
       fx="4.2404866"
       fy="292.7359"
       r="4.2336516" />
  </defs>
  <sodipodi:namedview
     id="base"
     pagecolor="#ffffff"
     bordercolor="#666666"
     borderopacity="1.0"
     inkscape:pageopacity="0.0"
     inkscape:pageshadow="2"
     inkscape:zoom="5.6568542"
     inkscape:cx="-10.403264"
     inkscape:cy="15.919526"
     inkscape:document-units="mm"
     inkscape:current-layer="layer1"
     showgrid="false"
     units="px"
     inkscape:window-width="1920"
     inkscape:window-height="1031"
     inkscape:window-x="0"
     inkscape:window-y="0"
     inkscape:window-maximized="1" />
  <metadata
     id="metadata5">
    <rdf:RDF>
      <cc:Work
         rdf:about="">
        <dc:format>image/svg+xml</dc:format>
        <dc:type
           rdf:resource="http://purl.org/dc/dcmitype/StillImage" />
        <dc:title />
      </cc:Work>
    </rdf:RDF>
  </metadata>
  <g
     inkscape:label="Ebene 1"
     inkscape:groupmode="layer"
     id="layer1"
     transform="translate(0,-288.53334)">
    <circle
       style="fill:url(#radialGradient4544);fill-opacity:1;stroke:none;stroke-width:0.5415287;stroke-miterlimit:4;stroke-dasharray:4.33222979, 0.54152872;stroke-dashoffset:0;stroke-opacity:1"
       id="path819"
       cx="4.2333331"
       cy="292.76666"
       inkscape:export-xdpi="96"
       inkscape:export-ydpi="96"
       r="4.2333331" />
  </g>
</svg>
